Reshaping Data
…
  Temp Tempdetrend
1   67  -10.882353
2   72   -5.882353
3   74   -3.882353
4   62  -15.882353
5   56  -21.882353
6   66  -11.882353

airqMutate2 <-mutate(airquality,tempcat=factor(1*(Temp>80),labels=c("cold","hot")))
hotcold <-group_by(airqMutate2,tempcat)
hotcold

# A tibble: 153 x 7
# Groups:   tempcat [2]
   Ozone Solar.R  Wind  Temp Month   Day tempcat
   <int>   <int> <dbl> <int> <int> <int> <fct>  
 1    41     190   7.4    67     5     1 cold   
 2    36     118   8      72     5     2 cold   
 3    12     149  12.6    74     5     3 cold   
 4    18     313  11.5    62     5     4 cold   
 5    NA      NA  14.3    56     5     5 cold   
 6    28      NA  14.9    66     5     6 cold   
 7    23     299   8.6    65     5     7 cold   
 8    19      99  13.8    59     5     8 cold   
 9     8      19  20.1    61     5     9 cold   
10    NA     194   8.6    69     5    10 cold   
# ... with 143 more rows
…
